%YAML 1.1
%TAG !u! tag:unity3d.com,2011:
--- !u!1045 &1
EditorBuildSettings:
  m_ObjectHideFlags: 0
  serializedVersion: 2
  m_Scenes:
  - enabled: 1
    path: Assets/Scene/Scenes/SceneMainMenu.unity
    guid: 19463fcc3da42b94e8f5bb94c4cdd18d
  - enabled: 1
    path: Assets/Scene/gameplayIguess.unity
    guid: 8abb5bac6152934479752a35314e6861
  m_configObjects: {}
